module emergencyx.gitlab.io

go 1.21

require (
	github.com/codecat/go-enet v0.0.0-20230124183417-a8586e7e37c4
	github.com/gin-contrib/gzip v1.0.1
	github.com/gin-gonic/gin v1.10.0
	github.com/golang-jwt/jwt/v4 v4.5.0
	github.com/gorilla/websocket v1.5.3
	github.com/lestrrat-go/jwx/v2 v2.1.0
	github.com/mattn/go-sqlite3 v1.14.22
	github.com/pkg/errors v0.9.1
	github.com/samber/slog-gin v1.13.3
	github.com/simukti/sqldb-logger v0.0.0-20230108155151-646c1a075551
	github.com/stretchr/testify v1.9.0
	gopkg.in/yaml.v3 v3.0.1
)

require (
	github.com/bytedance/sonic v1.11.9 // indirect
	github.com/bytedance/sonic/loader v0.1.1 // indirect
	github.com/cloudwego/base64x v0.1.4 // indirect
	github.com/cloudwego/iasm v0.2.0 // indirect
	github.com/davecgh/go-spew v1.1.1 // indirect
	github.com/decred/dcrd/dcrec/secp256k1/v4 v4.3.0 // indirect
	github.com/gabriel-vasile/mimetype v1.4.4 // indirect
	github.com/gin-contrib/sse v0.1.0 // indirect
	github.com/go-playground/locales v0.14.1 // indirect
	github.com/go-playground/universal-translator v0.18.1 // indirect
	github.com/go-playground/validator/v10 v10.22.0 // indirect
	github.com/goccy/go-json v0.10.3 // indirect
	github.com/google/uuid v1.6.0 // indirect
	github.com/json-iterator/go v1.1.12 // indirect
	github.com/klauspost/cpuid/v2 v2.2.8 // indirect
	github.com/leodido/go-urn v1.4.0 // indirect
	github.com/lestrrat-go/blackmagic v1.0.2 // indirect
	github.com/lestrrat-go/httpcc v1.0.1 // indirect
	github.com/lestrrat-go/httprc v1.0.5 // indirect
	github.com/lestrrat-go/iter v1.0.2 // indirect
	github.com/lestrrat-go/option v1.0.1 // indirect
	github.com/mattn/go-isatty v0.0.20 // indirect
	github.com/modern-go/concurrent v0.0.0-20180306012644-bacd9c7ef1dd // indirect
	github.com/modern-go/reflect2 v1.0.2 // indirect
	github.com/pelletier/go-toml/v2 v2.2.2 // indirect
	github.com/pmezard/go-difflib v1.0.0 // indirect
	github.com/segmentio/asm v1.2.0 // indirect
	github.com/twitchyliquid64/golang-asm v0.15.1 // indirect
	github.com/ugorji/go/codec v1.2.12 // indirect
	go.opentelemetry.io/otel v1.27.0 // indirect
	go.opentelemetry.io/otel/trace v1.27.0 // indirect
	golang.org/x/arch v0.8.0 // indirect
	golang.org/x/crypto v0.24.0 // indirect
	golang.org/x/net v0.26.0 // indirect
	golang.org/x/sys v0.21.0 // indirect
	golang.org/x/text v0.16.0 // indirect
	google.golang.org/protobuf v1.34.2 // indirect
)
